t,N=1,N=5,N=10,N=15,N=20
0,0,0,0,0,0
1000,2.66E-04,1.60E-11,1.57E-15,1.29E-17,7.36E-19
2000,0.003358069,4.27E-07,1.26E-08,2.89E-09,1.32E-09
3000,0.013458721,5.19E-05,9.27E-06,4.82E-06,3.44E-06
4000,0.033768968,8.37E-04,3.16E-04,2.21E-04,1.85E-04
5000,0.065642454,0.004986948,0.002714645,0.002184133,0.001955508
6000,0.108708395,0.016938332,0.011282393,0.009769109,0.009079592
7000,0.161357151,0.040720231,0.030608489,0.027673974,0.026291569
8000,0.221277089,0.078079102,0.063402075,0.058913881,0.056753551
9000,0.285907824,0.128206683,0.10964876,0.10376756,0.100894717
10000,0.352768111,0.188523465,0.167187117,0.16025084,0.156826702
11000,0.419661803,0.255674042,0.232751242,0.225157149,0.221378819
12000,0.48478389,0.326290489,0.302859266,0.294983879,0.291042056
13000,0.54675324,0.397432439,0.374364497,0.36652286,0.362579414
14000,0.60459663,0.466769425,0.444710114,0.437142747,0.433322798
15000,0.657704044,0.532601952,0.511988488,0.504864072,0.501256532
16000,0.705770084,0.593799125,0.574894556,0.56831983,0.564981978
17000,0.748731735,0.64970285,0.632633253,0.626665127,0.623628545
18000,0.786708982,0.700026479,0.684815398,0.679472719,0.676749198
19000,0.819951926,0.744761396,0.731359216,0.726633104,0.724219899
20000,0.848796117,0.784096977,0.772404794,0.768267206,0.766151428
21000,0.873626423,0.818355123,0.808243467,0.804654023,0.802816165
22000,0.894848992,0.847938599,0.839261679,0.836172936,0.834589613
23000,0.912870399,0.873291545,0.865897767,0.863259163,0.861905175
24000,0.928082882,0.894870302,0.888609751,0.886370466,0.8852203
25000,0.94085454,0.913122685,0.907852206,0.905963137,0.904992017
26000,0.951523435,0.928474001,0.924060413,0.92247547,0.921660051
27000,0.960394669,0.94131832,0.937640222,0.936317092,0.935635879
28000,0.967739634,0.952013714,0.948962252,0.947862778,0.947296336
29000,0.973796802,0.960880416,0.958359315,0.957449585,0.956980608
30000,0.978773514,0.968201047,0.966126139,0.965376382,0.964989653
31000,0.982848403,0.974222234,0.972520666,0.971905025,0.971587304
32000,0.986174127,0.979157105,0.977766369,0.977262587,0.977002466
33000,0.988880212,0.983188276,0.98205515,0.981644225,0.981431951
34000,0.991075853,0.986471047,0.985550522,0.985216346,0.985043644
35000,0.99285257,0.989136595,0.988390846,0.988119852,0.987979745
36000,0.99428667,0.991295061,0.990692474,0.9904733,0.99035994
37000,0.995441466,0.993038415,0.9925527,0.99237588,0.992284394
38000,0.996369259,0.994443074,0.99405247,0.993910157,0.993836499
39000,0.997113083,0.995572243,0.995258814,0.99514453,0.99508536
40000,0.997708209,0.996477982,0.996227002,0.996135421,0.996087991
41000,0.998183447,0.997203006,0.997002429,0.996929188,0.996891246
42000,0.998562254,0.997782238,0.997622241,0.99756378,0.997533486
43000,0.998863671,0.998244134,0.998116736,0.998070156,0.998046013
44000,0.99910311,0.998611813,0.998510544,0.998473495,0.998454287
45000,0.999293014,0.998904,0.998823631,0.998794211,0.998778955
46000,0.999440787,0.999135821,0.999072138,0.999048813,0.999036715
47000,0.999469279,0.999319466,0.999269078,0.999250614,0.999241035
48000,0.99946928,0.999456433,0.999424246,0.999410126,0.999402651
49000,0.99946928,0.999470846,0.999470944,0.999470985,0.999470908
50000,0.99946928,0.999470846,0.999470955,0.999471037,0.999471015
51000,0.99946928,0.999470846,0.999470955,0.999471037,0.999471015
52000,0.99946928,0.999470846,0.999470955,0.999471037,0.999471015
53000,0.99946928,0.999470846,0.999470955,0.999471037,0.999471015
54000,0.99946928,0.999470846,0.999470955,0.999471037,0.999471015
55000,0.99946928,0.999470846,0.999470955,0.999471037,0.999471015
56000,0.99946928,0.999470846,0.999470955,0.999471037,0.999471015
57000,0.99946928,0.999470846,0.999470955,0.999471037,0.999471015
58000,0.99946928,0.999470846,0.999470955,0.999471037,0.999471015
59000,0.99946928,0.999470846,0.999470955,0.999471037,0.999471015
60000,0.99946928,0.999470846,0.999470955,0.999471037,0.999471015
61000,0.99946928,0.999470846,0.999470955,0.999471037,0.999471015
62000,0.99946928,0.999470846,0.999470955,0.999471037,0.999471015
63000,0.99946928,0.999470846,0.999470955,0.999471037,0.999471015
64000,0.99946928,0.999470846,0.999470955,0.999471037,0.999471015
65000,0.99946928,0.999470846,0.999470955,0.999471037,0.999471015
66000,0.99946928,0.999470846,0.999470955,0.999471037,0.999471015
67000,0.99946928,0.999470846,0.999470955,0.999471037,0.999471015
68000,0.99946928,0.999470846,0.999470955,0.999471037,0.999471015
69000,0.99946928,0.999470846,0.999470955,0.999471037,0.999471015
70000,0.99946928,0.999470846,0.999470955,0.999471037,0.999471015
