t, Result
0, 0.0
1000, 1.5943995270668177E-11
2000, 5.061619674330682E-6
3000, 5.87615335814818E-4
4000, 0.006594932157314941
5000, 0.02757220148650057
6000, 0.06965619921552456
7000, 0.13179519525109212
8000, 0.20831180859296583
9000, 0.2923819593392498
10000, 0.37806439529310354
11000, 0.46099040359146537
12000, 0.5383358252016226
13000, 0.6085254377554693
14000, 0.6708956851529106
15000, 0.7254028802187099
16000, 0.7723977251684366
17000, 0.8124612697649323
18000, 0.8462902484041877
19000, 0.8746196875083994
20000, 0.8981727361263145
21000, 0.9176299583252797
22000, 0.9336122712294374
23000, 0.9466732348337278
24000, 0.9572975571160025
25000, 0.9659035498821688
26000, 0.9728479249347753
27000, 0.978431808398477
28000, 0.9829072123803466
29000, 0.986483467324127
30000, 0.9893333084847082
31000, 0.9915984439465377
32000, 0.9933945236867525
33000, 0.9948154903722247
34000, 0.9959373313958055
35000, 0.9968212745907037
36000, 0.9975164819875927
37000, 0.9980623004995809
38000, 0.9984901281540666
39000, 0.9988249513026893
40000, 0.9990866034320551
41000, 0.9992907906507701
42000, 0.9994495894739157
43000, 0.9995003952074446
44000, 0.9995004032729692
45000, 0.9995004032729692
46000, 0.9995004032729692
47000, 0.9995004032729692
48000, 0.9995004032729692
49000, 0.9995004032729692
50000, 0.9995004032729692
51000, 0.9995004032729692
52000, 0.9995004032729692
53000, 0.9995004032729692
54000, 0.9995004032729692
55000, 0.9995004032729692
56000, 0.9995004032729692
57000, 0.9995004032729692
58000, 0.9995004032729692
59000, 0.9995004032729692
60000, 0.9995004032729692
61000, 0.9995004032729692
62000, 0.9995004032729692
63000, 0.9995004032729692
64000, 0.9995004032729692
65000, 0.9995004032729692
66000, 0.9995004032729692
67000, 0.9995004032729692
68000, 0.9995004032729692
69000, 0.9995004032729692
70000, 0.9995004032729692
