t, Result
0, 0.0
1000, 7.464966301239141E-8
2000, 9.181654764077854E-5
3000, 0.0023064182135694405
4000, 0.014161261772662165
5000, 0.04430438372257058
6000, 0.09551940432636706
7000, 0.16437845771912077
8000, 0.24452944714509237
9000, 0.3295070079989165
10000, 0.41408871835157207
11000, 0.49462064680403833
12000, 0.5688545400482073
13000, 0.6356318007620086
14000, 0.694568999062451
15000, 0.7457985161334094
16000, 0.7897725170400406
17000, 0.8271221078156635
18000, 0.8585598443175493
19000, 0.8848146599607717
20000, 0.906590367701605
21000, 0.924540952728728
22000, 0.9392575772488629
23000, 0.9512635468271586
24000, 0.961014500583551
25000, 0.9689018538119373
26000, 0.9752580980683807
27000, 0.9803629942389974
28000, 0.9844500120998717
29000, 0.9877126014767724
30000, 0.9903100457735157
31000, 0.9923727645160528
32000, 0.9940070103531413
33000, 0.9952989575600333
34000, 0.9963182111274964
35000, 0.9971207837684317
36000, 0.9977515969606793
37000, 0.9982465646453403
38000, 0.9986343167093363
39000, 0.9989376155223129
40000, 0.9991745136925033
41000, 0.9993592956034126
42000, 0.9994914814315152
43000, 0.9995004090401807
44000, 0.9995004090414139
45000, 0.9995004090414139
46000, 0.9995004090414139
47000, 0.9995004090414139
48000, 0.9995004090414139
49000, 0.9995004090414139
50000, 0.9995004090414139
51000, 0.9995004090414139
52000, 0.9995004090414139
53000, 0.9995004090414139
54000, 0.9995004090414139
55000, 0.9995004090414139
56000, 0.9995004090414139
57000, 0.9995004090414139
58000, 0.9995004090414139
59000, 0.9995004090414139
60000, 0.9995004090414139
61000, 0.9995004090414139
62000, 0.9995004090414139
63000, 0.9995004090414139
64000, 0.9995004090414139
65000, 0.9995004090414139
66000, 0.9995004090414139
67000, 0.9995004090414139
68000, 0.9995004090414139
69000, 0.9995004090414139
70000, 0.9995004090414139
