R{"time"}=? [ F "complete" ]:
Result
12475.786098379866

P=? [ F[t,t] "complete" ]:
t	Result
0	0.0
1000	2.7040587788367024E-10
2000	1.1856648543357079E-5
3000	8.59506847572599E-4
4000	0.008114809343645791
5000	0.031311355415443776
6000	0.07577072804796123
7000	0.13975923891111555
8000	0.21735495503601684
9000	0.30178720578834045
10000	0.38728595830726015
11000	0.4696658698730105
12000	0.5462556281743687
13000	0.6155930487183782
14000	0.6770919976933567
15000	0.7307584313013318
16000	0.7769724707839657
17000	0.8163304745057735
18000	0.8495349727642814
19000	0.8773206103686473
20000	0.9004063456609507
21000	0.9194663956574121
22000	0.9351143045445496
23000	0.9478959858722866
24000	0.9582887086882446
25000	0.9667038419992959
26000	0.9734918055056825
27000	0.9789481473753918
28000	0.9833200195384443
29000	0.986812576372145
30000	0.9895950060994039
31000	0.9918060332842964
32000	0.9935588192496403
33000	0.99494524579246
34000	0.9960396045120106
35000	0.9969017356928181
36000	0.9975796717276837
37000	0.9981118440109139
38000	0.998528911610823
39000	0.9988552666415806
40000	0.999110266349787
41000	0.9993092363572158
42000	0.9994631836101089
43000	0.9995003933319172
44000	0.9995003944875638
45000	0.9995003944875638
46000	0.9995003944875638
47000	0.9995003944875638
48000	0.9995003944875638
49000	0.9995003944875638
50000	0.9995003944875638
51000	0.9995003944875638
52000	0.9995003944875638
53000	0.9995003944875638
54000	0.9995003944875638
55000	0.9995003944875638
56000	0.9995003944875638
57000	0.9995003944875638
58000	0.9995003944875638
59000	0.9995003944875638
60000	0.9995003944875638
61000	0.9995003944875638
62000	0.9995003944875638
63000	0.9995003944875638
64000	0.9995003944875638
65000	0.9995003944875638
66000	0.9995003944875638
67000	0.9995003944875638
68000	0.9995003944875638
69000	0.9995003944875638
70000	0.9995003944875638
