t, Result
0, 0.0
1000, 3.0051742196190078E-12
2000, 3.205335365667736E-6
3000, 4.816895041945149E-4
4000, 0.005923493975199789
5000, 0.025821912353050546
6000, 0.0667032941204001
7000, 0.12787656593796082
8000, 0.2038081844938648
9000, 0.2876591334827692
10000, 0.3734062658266949
11000, 0.45658869173270933
12000, 0.5343037699820692
13000, 0.6049174628453754
14000, 0.6677254992826666
15000, 0.7226577996482378
16000, 0.7700491993038564
17000, 0.810472279067396
18000, 0.8446203264377811
19000, 0.873228207756955
20000, 0.8970209599364947
21000, 0.9166822140859138
22000, 0.9328365362786837
23000, 0.9460413174386787
24000, 0.9567850207006611
25000, 0.9654894806993536
26000, 0.9725146139827255
27000, 0.9781643959489569
28000, 0.9826933270769785
29000, 0.9863128799704677
30000, 0.9891976122505061
31000, 0.9914907669100046
32000, 0.9933092757263001
33000, 0.9947481439036655
34000, 0.9958842339239938
35000, 0.9967794902091756
36000, 0.9974836585942619
37000, 0.9980365594393216
38000, 0.9984699731334677
39000, 0.9988091936675172
40000, 0.999074301197682
41000, 0.9992811989933791
42000, 0.9994422866589314
43000, 0.9995003807749737
44000, 0.9995004006351742
45000, 0.9995004006351742
46000, 0.9995004006351742
47000, 0.9995004006351742
48000, 0.9995004006351742
49000, 0.9995004006351742
50000, 0.9995004006351742
51000, 0.9995004006351742
52000, 0.9995004006351742
53000, 0.9995004006351742
54000, 0.9995004006351742
55000, 0.9995004006351742
56000, 0.9995004006351742
57000, 0.9995004006351742
58000, 0.9995004006351742
59000, 0.9995004006351742
60000, 0.9995004006351742
61000, 0.9995004006351742
62000, 0.9995004006351742
63000, 0.9995004006351742
64000, 0.9995004006351742
65000, 0.9995004006351742
66000, 0.9995004006351742
67000, 0.9995004006351742
68000, 0.9995004006351742
69000, 0.9995004006351742
70000, 0.9995004006351742
