t, Result
0, 0.0
1000, 3.0038549456441505E-12
2000, 3.2044342608457535E-6
3000, 4.815044158562383E-4
4000, 0.005920658051391973
5000, 0.025807310335466734
6000, 0.06666027683005829
7000, 0.12778479229117712
8000, 0.2036483333944565
9000, 0.2874159772392344
10000, 0.37306983496906115
11000, 0.4561541461659922
12000, 0.5337706229835814
13000, 0.6042885915586202
14000, 0.6670061756112055
15000, 0.7218548456258321
16000, 0.7691702999261526
17000, 0.8095254509685568
18000, 0.8436135258546498
19000, 0.8721690560530017
20000, 0.8959165644256195
21000, 0.9155390634956263
22000, 0.9316604527090367
23000, 0.9448374494940492
24000, 0.9555578652673178
25000, 0.9642429234305886
26000, 0.9712519808399883
27000, 0.9768885100928899
28000, 0.9814065670050385
29000, 0.9850172360800016
30000, 0.9878947400034848
31000, 0.9901820355293695
32000, 0.9919958119063589
33000, 0.9934308704078487
34000, 0.9945639032075442
35000, 0.995456713372386
36000, 0.9961589300684374
37000, 0.9967102778526946
38000, 0.9971424588137492
39000, 0.9974807032233373
40000, 0.9977450395921933
41000, 0.9979513294859749
42000, 0.9981121067402737
43000, 0.9982372551869736
44000, 0.9983345538822433
45000, 0.9984101142180316
46000, 0.9984687292431352
47000, 0.9985141520109663
48000, 0.9985493167541528
49000, 0.998576502301829
50000, 0.9985968536587988
51000, 0.9986076737302565
52000, 0.9986097267269817
53000, 0.9986098068397588
54000, 0.9986098073260501
55000, 0.9986098073264618
56000, 0.9986098073264632
57000, 0.9986098073264632
58000, 0.9986098073264632
59000, 0.9986098073264632
60000, 0.9986098073264632
61000, 0.9986098073264632
62000, 0.9986098073264632
63000, 0.9986098073264632
64000, 0.9986098073264632
65000, 0.9986098073264632
66000, 0.9986098073264632
67000, 0.9986098073264632
68000, 0.9986098073264632
69000, 0.9986098073264632
70000, 0.9986098073264632
